digraph dot
{
	fontname="Helvetica-Bold"; label="Library Organization";
	
	node [ shape="rectangle" style="filled" fillcolor="lightcyan"
	      fontname="Helvetica"];
	"User Interface Layer\n(graphicsHostLibrary.h - primarily macros)"
	      [ fillcolor="peachpuff" ];
	
	"User Interface Layer\n(graphicsHostLibrary.h - primarily macros)"->
	"Oddballs Layer\n(TFTprintDecRight,TFTGcolors, etc.)";
	
	"User Interface Layer\n(graphicsHostLibrary.h - primarily macros)"->
	"Helper Routines\n(TFTsend2,TFTsend4, etc.)";
	
	"User Interface Layer\n(graphicsHostLibrary.h - primarily macros)"->
	"Serial Routines\n(getch,putch)";
	
	"Oddballs Layer\n(TFTprintDecRight,TFTGcolors, etc.)"->
	"Helper Routines\n(TFTsend2,TFTsend4, etc.)";
	
	"Oddballs Layer\n(TFTprintDecRight,TFTGcolors, etc.)"->
	"Serial Routines\n(getch,putch)";
	
	"Helper Routines\n(TFTsend2,TFTsend4, etc.)"->
	  "Serial Routines\n(getch,putch)";
}
